{
  "name": "",
  "css_prefix_text": "icon-",
  "css_use_suffix": false,
  "hinting": true,
  "units_per_em": 1000,
  "ascent": 850,
  "glyphs": [
    {
      "uid": "9bd60140934a1eb9236fd7a8ab1ff6ba",
      "css": "spin4",
      "code": 59411,
      "src": "fontelico"
    },
    {
      "uid": "9bc2902722abb366a213a052ade360bc",
      "css": "spin6",
      "code": 59409,
      "src": "fontelico"
    },
    {
      "uid": "bf882b30900da12fca090d9796bc3030",
      "css": "mail",
      "code": 59392,
      "src": "fontawesome"
    },
    {
      "uid": "ccc2329632396dc096bb638d4b46fb98",
      "css": "mail-alt",
      "code": 59393,
      "src": "fontawesome"
    },
    {
      "uid": "0ddd3e8201ccc7d41f7b7c9d27eca6c1",
      "css": "link",
      "code": 59434,
      "src": "fontawesome"
    },
    {
      "uid": "1dcd2b2148b7f086a4eb47f6a746bdee",
      "css": "unlink",
      "code": 59394,
      "src": "fontawesome"
    },
    {
      "uid": "ab95e1351ebaec5850101097cbf7097f",
      "css": "quote-left",
      "code": 59406,
      "src": "fontawesome"
    },
    {
      "uid": "d745d7c05b94e609decabade2cae12cb",
      "css": "quote-right",
      "code": 59407,
      "src": "fontawesome"
    },
    {
      "uid": "7277ded7695b2a307a5f9d50097bb64c",
      "css": "print",
      "code": 59405,
      "src": "fontawesome"
    },
    {
      "uid": "98687378abd1faf8f6af97c254eb6cd6",
      "css": "cog-alt",
      "code": 59403,
      "src": "fontawesome"
    },
    {
      "uid": "745f12abe1472d14f8f658de7e5aba66",
      "css": "angle-double-left",
      "code": 59402,
      "src": "fontawesome"
    },
    {
      "uid": "fdfbd1fcbd4cb229716a810801a5f207",
      "css": "angle-double-right",
      "code": 59401,
      "src": "fontawesome"
    },
    {
      "uid": "63b3012c8cbe3654ba5bea598235aa3a",
      "css": "angle-double-up",
      "code": 59400,
      "src": "fontawesome"
    },
    {
      "uid": "dfec4ffa849d8594c2e4b86f6320b8a6",
      "css": "angle-double-down",
      "code": 59399,
      "src": "fontawesome"
    },
    {
      "uid": "38575a803c4da31ce20d77e1e1236bcb",
      "css": "paper-plane",
      "code": 59395,
      "src": "fontawesome"
    },
    {
      "uid": "4b2321afcbe0505a70b80abd5c25e09b",
      "css": "paper-plane-empty",
      "code": 59396,
      "src": "fontawesome"
    },
    {
      "uid": "25a81737628d1e654a30ad412d7d6dd7",
      "css": "align-justify",
      "code": 59397,
      "src": "fontawesome"
    },
    {
      "uid": "55605ca79a65def1a9c300037ff1d0d5",
      "css": "paw",
      "code": 59398,
      "src": "fontawesome"
    },
    {
      "uid": "14017aae737730faeda4a6fd8fb3a5f0",
      "css": "check",
      "code": 59416,
      "src": "entypo"
    },
    {
      "uid": "c709da589c923ba3c2ad48d9fc563e93",
      "css": "cancel",
      "code": 59417,
      "src": "entypo"
    },
    {
      "uid": "44b9e75612c5fad5505edd70d071651f",
      "css": "attach",
      "code": 59415,
      "src": "entypo"
    },
    {
      "uid": "bcb868184ff9c35f8aef564f50c0d649",
      "css": "feather",
      "code": 59414,
      "src": "entypo"
    },
    {
      "uid": "a42b598e4298f3319b25a2702a02e7ff",
      "css": "location",
      "code": 59413,
      "src": "entypo"
    },
    {
      "uid": "c117f17c0316ef71fb2a658c4c273002",
      "css": "compass",
      "code": 59412,
      "src": "entypo"
    },
    {
      "uid": "5854855e963044f93b15738a5bb27a29",
      "css": "phone",
      "code": 59404,
      "src": "entypo"
    },
    {
      "uid": "2f750a9be253e8e451209574336e7020",
      "css": "mute",
      "code": 59431,
      "src": "entypo"
    },
    {
      "uid": "ef51920c7a9bed4d87f53709db115e34",
      "css": "sound",
      "code": 59432,
      "src": "entypo"
    },
    {
      "uid": "9c7fd7637a41b59a358cb70893f945a5",
      "css": "rocket",
      "code": 59433,
      "src": "entypo"
    },
    {
      "uid": "84f3880057574e968053d6d6c8a7b216",
      "css": "behance-1",
      "code": 59408,
      "src": "entypo"
    },
    {
      "uid": "c9a7eca58474311926922ff8c2c1d256",
      "css": "vkontakte",
      "code": 59410,
      "src": "entypo"
    },
    {
      "uid": "e566d3f1d24f22981f6552d5188e7265",
      "css": "gplus-2",
      "code": 59427,
      "src": "zocial"
    },
    {
      "uid": "64c2f859fa518d38db7ec7532855ae34",
      "css": "wikipedia",
      "code": 59430,
      "src": "zocial"
    },
    {
      "uid": "eb2d71e114d99d85b2ae28ab70d981a6",
      "css": "call",
      "code": 59423,
      "src": "zocial"
    },
    {
      "uid": "1884ff7f89cc02840606d28f9bcf930a",
      "css": "skype-1",
      "code": 59421,
      "src": "zocial"
    },
    {
      "uid": "b1ec8e90c2c85cf0035849980a3789b3",
      "css": "twitter-2",
      "code": 59420,
      "src": "zocial"
    },
    {
      "uid": "57a4f84c40a0c44d47387105f162a427",
      "css": "youtube",
      "code": 59419,
      "src": "zocial"
    },
    {
      "uid": "e47352cd4c5e069288b29a2c9ab9d305",
      "css": "vimeo-1",
      "code": 59418,
      "src": "zocial"
    },
    {
      "uid": "d0ce443b8d7376716584f5f660a6bf72",
      "css": "dropbox",
      "code": 59424,
      "src": "zocial"
    },
    {
      "uid": "6f7586c6f99798c3c1de6123d1f6cfa9",
      "css": "facebook-1",
      "code": 59425,
      "src": "zocial"
    },
    {
      "uid": "ff16079eb4be12c49bf3014d2322acdd",
      "css": "github-circled-1",
      "code": 59426,
      "src": "zocial"
    },
    {
      "uid": "0636c283a9822288a767609062bbf4a4",
      "css": "wordpress",
      "code": 59428,
      "src": "zocial"
    },
    {
      "uid": "155970c9f52b23f31026bab7163caa63",
      "css": "codepen",
      "code": 59422,
      "src": "brandico"
    },
    {
      "uid": "55f7ab3f2bedec72e8400fa2798a7a1a",
      "css": "align-justify-1",
      "code": 59429,
      "src": "elusive"
    }
  ]
}